<svg width="565" height="551" viewBox="0 0 565 551" fill="none" xmlns="http://www.w3.org/2000/svg">
<path d="M473.531 89.6402C524.51 139.358 552.5 205.329 552.5 275.5C552.5 345.671 524.51 411.642 473.531 461.359C422.54 511.085 354.743 538.5 282.5 538.5C234.856 538.5 188.281 526.307 147.346 503.215L142.94 500.729L138.045 502.008L17.7902 533.432L49.8885 416.606L51.2955 411.485L48.5861 406.917C24.9535 367.075 12.5 321.79 12.5 275.5C12.5 205.329 40.4899 139.358 91.4687 89.6406M473.531 89.6402L482.258 80.6914M473.531 89.6402L482.258 80.6914M473.531 89.6402C422.539 39.9143 354.743 12.5 282.5 12.5C210.257 12.5 142.46 39.9146 91.4687 89.6406M482.258 80.6914C428.9 28.6574 357.958 0 282.5 0C207.042 0 136.1 28.6574 82.7416 80.6914M482.258 80.6914C535.615 132.728 565 201.911 565 275.5C565 349.089 535.615 418.272 482.258 470.309C428.9 522.343 357.958 551 282.5 551C232.726 551 184.032 538.262 141.205 514.102L37.8351 413.294C13.0612 371.528 0 324.041 0 275.5C0 201.911 29.3855 132.728 82.7416 80.6914M91.4687 89.6406L82.7416 80.6914M91.4687 89.6406L82.7416 80.6914M299.053 425.212H311.553V412.712V380.427V367.927H299.053H265.947H253.447V380.427V412.712V425.212H265.947H299.053ZM299.053 360.642H311.553V348.142V326.885L353.387 281.259C353.389 281.258 353.39 281.257 353.391 281.255C369.075 264.163 377.764 242.051 377.764 219.001C377.764 167.299 334.742 125.788 282.5 125.788C230.258 125.788 187.236 167.299 187.236 219.001V231.501H199.736H232.842H245.342V219.001C245.342 199.495 261.725 183.073 282.5 183.073C303.275 183.073 319.658 199.495 319.658 219.001C319.658 227.756 316.369 236.212 310.296 242.828L310.291 242.833L256.734 301.243L253.447 304.828V309.691V348.142V360.642H265.947H299.053Z" fill="#EFD54F" stroke="#141313" stroke-width="25"/>
<rect x="158.201" y="104.695" width="242.95" height="347.13" fill="#EFD54F"/>
<path d="M270.8 360C291.333 360 305.733 356.8 314 350.4C322.267 343.733 326.4 335.333 326.4 325.2C326.4 317.733 324.533 311.333 320.8 306C317.333 300.667 312.533 296 306.4 292C300.533 288 293.6 284.4 285.6 281.2C277.867 278 269.867 274.933 261.6 272C253.6 269.067 245.6 265.867 237.6 262.4C229.867 258.667 222.933 254.267 216.8 249.2C210.667 243.867 205.6 237.6 201.6 230.4C197.867 222.933 196 213.867 196 203.2C196 184.267 201.6 168.8 212.8 156.8C224.267 144.533 240.8 136.8 262.4 133.6V87.6H295.6V132.4C307.333 132.933 318.267 134.4 328.4 136.8C338.533 139.2 346.533 141.467 352.4 143.6L344.8 174.8C338.4 172.4 330.4 170 320.8 167.6C311.2 164.933 299.2 163.6 284.8 163.6C268.8 163.6 256.4 166.667 247.6 172.8C239.067 178.933 234.8 187.6 234.8 198.8C234.8 204.933 236 210.133 238.4 214.4C241.067 218.667 244.8 222.533 249.6 226C254.4 229.2 260 232.133 266.4 234.8C273.067 237.467 280.4 240.267 288.4 243.2C298.8 247.2 308.667 251.333 318 255.6C327.333 259.867 335.467 265.067 342.4 271.2C349.6 277.067 355.333 284.133 359.6 292.4C363.867 300.667 366 310.667 366 322.4C366 341.333 360.267 356.667 348.8 368.4C337.333 379.867 319.6 387.067 295.6 390V441.6H262.4V391.2C243.733 390.667 228.533 388.667 216.8 385.2C205.067 381.467 196.267 378 190.4 374.8L200.4 344.8C208.4 348.533 218 352 229.2 355.2C240.4 358.4 254.267 360 270.8 360Z" fill="#141313"/>
</svg>
